%YAML 1.1
%TAG !u! tag:unity3d.com,2011:
--- !u!114 &11400000
MonoBehaviour:
  m_ObjectHideFlags: 0
  m_CorrespondingSourceObject: {fileID: 0}
  m_PrefabInstance: {fileID: 0}
  m_PrefabAsset: {fileID: 0}
  m_GameObject: {fileID: 0}
  m_Enabled: 1
  m_EditorHideFlags: 0
  m_Script: {fileID: 11500000, guid: 6d207b0f77d652c448fecceac3407c9d, type: 3}
  m_Name: 0280D282-5198-4D58-9F90-99EC9B290B35
  m_EditorClassIdentifier: 
  objectName: EnemyHit
  id: 391172934
  guid: 0280D282-5198-4D58-9F90-99EC9B290B35
