%YAML 1.1
%TAG !u! tag:unity3d.com,2011:
--- !u!114 &11400000
MonoBehaviour:
  m_ObjectHideFlags: 0
  m_CorrespondingSourceObject: {fileID: 0}
  m_PrefabInstance: {fileID: 0}
  m_PrefabAsset: {fileID: 0}
  m_GameObject: {fileID: 0}
  m_Enabled: 1
  m_EditorHideFlags: 0
  m_Script: {fileID: 11500000, guid: 6d207b0f77d652c448fecceac3407c9d, type: 3}
  m_Name: ED55A087-ABCB-4DF8-BECF-6ADA8DF01560
  m_EditorClassIdentifier: 
  objectName: ShieldHit
  id: 2513197477
  guid: ED55A087-ABCB-4DF8-BECF-6ADA8DF01560
