{
    "originalSdkFolder": "D:\\Wwise 2022.1.6.8263\\SDK",
    "currentVersion": {
        "nickname": "",
        "build": 2826,
        "major": 1,
        "minor": 6,
        "year": 2022
    },
    "installedBundleGroups": [
        {
            "id": "Packages",
            "valueId": "Unity"
        },
        {
            "id": "Packages",
            "valueId": "Extensions"
        },
        {
            "id": "DeploymentPlatforms",
            "valueId": "Mac"
        },
        {
            "id": "DeploymentPlatforms",
            "valueId": "Windows"
        }
    ]
}